\relax 
\providecommand\hyper@newdestlabel[2]{}
\@writefile{toc}{\contentsline {section}{\numberline {4.2}vector}{8}{section.4.2}}
\newlabel{group__VECTOR}{{4.2}{8}{vector}{section.4.2}{}}
\newlabel{group__VECTOR_ga076407c35f41c3eb216fbb2ffec41873}{{4.2}{8}{Macros}{section*.4}{}}
\newlabel{group__VECTOR_gaffd2227377ea695768ca82e8ea02f48e}{{4.2}{8}{Typedefs}{section*.5}{}}
\newlabel{group__VECTOR_gabc76a49826ba5787770694a3183f26c0}{{4.2}{8}{Typedefs}{section*.5}{}}
\newlabel{group__VECTOR_ga604ea30e5e116f443a85a821a53402c7}{{4.2}{8}{Typedefs}{section*.5}{}}
\newlabel{group__VECTOR_gacc1ad0455b67577ddba100839974955e}{{4.2}{8}{Enumerations}{section*.6}{}}
\gdef \PWST@i{1}
\gdef \PWST@ii{1}
\gdef \PWST@iii{1}
\@writefile{toc}{\contentsline {subsection}{\numberline {4.2.1}Detailed Description}{9}{subsection.4.2.1}}
\@writefile{toc}{\contentsline {subsection}{\numberline {4.2.2}Function Documentation}{9}{subsection.4.2.2}}
\@writefile{toc}{\contentsline {subsubsection}{\numberline {4.2.2.1}Vector\discretionary {\unhbox \voidb@x \hbox {\relax \fontsize  {7}{8}\selectfont  $\leftarrow \joinrel  \rhook $}}{}{}\_\discretionary {\unhbox \voidb@x \hbox {\relax \fontsize  {7}{8}\selectfont  $\leftarrow \joinrel  \rhook $}}{}{}\discretionary {\unhbox \voidb@x \hbox {\relax \fontsize  {7}{8}\selectfont  $\leftarrow \joinrel  \rhook $}}{}{}Add}{9}{subsubsection.4.2.2.1}}
\newlabel{group__VECTOR_ga60f51e9dd4e44549f04bbd370ca78e28}{{4.2.2.1}{9}{Vector\+\_\+\+Add}{subsubsection.4.2.2.1}{}}
\@writefile{toc}{\contentsline {subsubsection}{\numberline {4.2.2.2}Vector\discretionary {\unhbox \voidb@x \hbox {\relax \fontsize  {7}{8}\selectfont  $\leftarrow \joinrel  \rhook $}}{}{}\_\discretionary {\unhbox \voidb@x \hbox {\relax \fontsize  {7}{8}\selectfont  $\leftarrow \joinrel  \rhook $}}{}{}\discretionary {\unhbox \voidb@x \hbox {\relax \fontsize  {7}{8}\selectfont  $\leftarrow \joinrel  \rhook $}}{}{}Back}{9}{subsubsection.4.2.2.2}}
\newlabel{group__VECTOR_ga08b419d6dfc0727630c8ee6246da9786}{{4.2.2.2}{9}{Vector\+\_\+\+Back}{subsubsection.4.2.2.2}{}}
\gdef \PWST@iv{1}
\gdef \PWST@v{1}
\gdef \PWST@vi{1}
\gdef \PWST@vii{1}
\gdef \PWST@viii{1}
\gdef \PWST@ix{1}
\@writefile{toc}{\contentsline {subsubsection}{\numberline {4.2.2.3}Vector\discretionary {\unhbox \voidb@x \hbox {\relax \fontsize  {7}{8}\selectfont  $\leftarrow \joinrel  \rhook $}}{}{}\_\discretionary {\unhbox \voidb@x \hbox {\relax \fontsize  {7}{8}\selectfont  $\leftarrow \joinrel  \rhook $}}{}{}\discretionary {\unhbox \voidb@x \hbox {\relax \fontsize  {7}{8}\selectfont  $\leftarrow \joinrel  \rhook $}}{}{}Delete}{10}{subsubsection.4.2.2.3}}
\newlabel{group__VECTOR_ga24745e680dd69888b8d54bd53609de59}{{4.2.2.3}{10}{Vector\+\_\+\+Delete}{subsubsection.4.2.2.3}{}}
\@writefile{toc}{\contentsline {subsubsection}{\numberline {4.2.2.4}Vector\discretionary {\unhbox \voidb@x \hbox {\relax \fontsize  {7}{8}\selectfont  $\leftarrow \joinrel  \rhook $}}{}{}\_\discretionary {\unhbox \voidb@x \hbox {\relax \fontsize  {7}{8}\selectfont  $\leftarrow \joinrel  \rhook $}}{}{}\discretionary {\unhbox \voidb@x \hbox {\relax \fontsize  {7}{8}\selectfont  $\leftarrow \joinrel  \rhook $}}{}{}End}{10}{subsubsection.4.2.2.4}}
\newlabel{group__VECTOR_gacda3c4d482a24c44ca2039d1ee3a38cd}{{4.2.2.4}{10}{Vector\+\_\+\+End}{subsubsection.4.2.2.4}{}}
\@writefile{toc}{\contentsline {subsubsection}{\numberline {4.2.2.5}Vector\discretionary {\unhbox \voidb@x \hbox {\relax \fontsize  {7}{8}\selectfont  $\leftarrow \joinrel  \rhook $}}{}{}\_\discretionary {\unhbox \voidb@x \hbox {\relax \fontsize  {7}{8}\selectfont  $\leftarrow \joinrel  \rhook $}}{}{}\discretionary {\unhbox \voidb@x \hbox {\relax \fontsize  {7}{8}\selectfont  $\leftarrow \joinrel  \rhook $}}{}{}Free}{10}{subsubsection.4.2.2.5}}
\newlabel{group__VECTOR_ga3033c1c2231e7cc748c5fcf2c7cdc67b}{{4.2.2.5}{10}{Vector\+\_\+\+Free}{subsubsection.4.2.2.5}{}}
\gdef \PWST@x{1}
\gdef \PWST@xi{1}
\gdef \PWST@xii{1}
\gdef \PWST@xiii{1}
\gdef \PWST@xiv{1}
\@writefile{toc}{\contentsline {subsubsection}{\numberline {4.2.2.6}Vector\discretionary {\unhbox \voidb@x \hbox {\relax \fontsize  {7}{8}\selectfont  $\leftarrow \joinrel  \rhook $}}{}{}\_\discretionary {\unhbox \voidb@x \hbox {\relax \fontsize  {7}{8}\selectfont  $\leftarrow \joinrel  \rhook $}}{}{}\discretionary {\unhbox \voidb@x \hbox {\relax \fontsize  {7}{8}\selectfont  $\leftarrow \joinrel  \rhook $}}{}{}Get}{11}{subsubsection.4.2.2.6}}
\newlabel{group__VECTOR_ga3112a61170fa741b23f6b0a5f425e70a}{{4.2.2.6}{11}{Vector\+\_\+\+Get}{subsubsection.4.2.2.6}{}}
\@writefile{toc}{\contentsline {subsubsection}{\numberline {4.2.2.7}Vector\discretionary {\unhbox \voidb@x \hbox {\relax \fontsize  {7}{8}\selectfont  $\leftarrow \joinrel  \rhook $}}{}{}\_\discretionary {\unhbox \voidb@x \hbox {\relax \fontsize  {7}{8}\selectfont  $\leftarrow \joinrel  \rhook $}}{}{}\discretionary {\unhbox \voidb@x \hbox {\relax \fontsize  {7}{8}\selectfont  $\leftarrow \joinrel  \rhook $}}{}{}Init}{11}{subsubsection.4.2.2.7}}
\newlabel{group__VECTOR_ga9ba50605245446efdae5d771a6cd8ae9}{{4.2.2.7}{11}{Vector\+\_\+\+Init}{subsubsection.4.2.2.7}{}}
\@writefile{toc}{\contentsline {subsubsection}{\numberline {4.2.2.8}Vector\discretionary {\unhbox \voidb@x \hbox {\relax \fontsize  {7}{8}\selectfont  $\leftarrow \joinrel  \rhook $}}{}{}\_\discretionary {\unhbox \voidb@x \hbox {\relax \fontsize  {7}{8}\selectfont  $\leftarrow \joinrel  \rhook $}}{}{}\discretionary {\unhbox \voidb@x \hbox {\relax \fontsize  {7}{8}\selectfont  $\leftarrow \joinrel  \rhook $}}{}{}Set}{11}{subsubsection.4.2.2.8}}
\newlabel{group__VECTOR_gabb2149f22ec3f48f90bd2d28576f9957}{{4.2.2.8}{11}{Vector\+\_\+\+Set}{subsubsection.4.2.2.8}{}}
\gdef \PWST@xv{2}
\gdef \PWST@xvi{1}
\gdef \PWST@xvii{1}
\gdef \PWST@xviii{1}
\@writefile{toc}{\contentsline {subsubsection}{\numberline {4.2.2.9}Vector\discretionary {\unhbox \voidb@x \hbox {\relax \fontsize  {7}{8}\selectfont  $\leftarrow \joinrel  \rhook $}}{}{}\_\discretionary {\unhbox \voidb@x \hbox {\relax \fontsize  {7}{8}\selectfont  $\leftarrow \joinrel  \rhook $}}{}{}\discretionary {\unhbox \voidb@x \hbox {\relax \fontsize  {7}{8}\selectfont  $\leftarrow \joinrel  \rhook $}}{}{}Swap}{12}{subsubsection.4.2.2.9}}
\newlabel{group__VECTOR_ga6b225c40b463ed2f4aabd80217750f1a}{{4.2.2.9}{12}{Vector\+\_\+\+Swap}{subsubsection.4.2.2.9}{}}
\@setckpt{group__VECTOR}{
\setcounter{page}{13}
\setcounter{equation}{0}
\setcounter{enumi}{0}
\setcounter{enumii}{0}
\setcounter{enumiii}{0}
\setcounter{enumiv}{0}
\setcounter{footnote}{0}
\setcounter{mpfootnote}{0}
\setcounter{part}{0}
\setcounter{chapter}{4}
\setcounter{section}{2}
\setcounter{subsection}{2}
\setcounter{subsubsection}{9}
\setcounter{paragraph}{0}
\setcounter{subparagraph}{0}
\setcounter{figure}{0}
\setcounter{table}{0}
\setcounter{float@type}{4}
\setcounter{PWSTtable}{18}
\setcounter{NAT@ctr}{0}
\setcounter{lofdepth}{1}
\setcounter{lotdepth}{1}
\setcounter{Item}{0}
\setcounter{Hfootnote}{0}
\setcounter{bookmark@seq@number}{21}
\setcounter{section@level}{3}
}
