\contentsline {chapter}{\numberline {1}Module Index}{1}{chapter.1}
\contentsline {section}{\numberline {1.1}Modules}{1}{section.1.1}
\contentsline {chapter}{\numberline {2}Data Structure Index}{3}{chapter.2}
\contentsline {section}{\numberline {2.1}Data Structures}{3}{section.2.1}
\contentsline {chapter}{\numberline {3}File Index}{5}{chapter.3}
\contentsline {section}{\numberline {3.1}File List}{5}{section.3.1}
\contentsline {chapter}{\numberline {4}Module Documentation}{7}{chapter.4}
\contentsline {section}{\numberline {4.1}S\discretionary {\unhbox \voidb@x \hbox {\relax \fontsize {7}{8}\selectfont $\leftarrow \joinrel \rhook $}}{}{}C\discretionary {\unhbox \voidb@x \hbox {\relax \fontsize {7}{8}\selectfont $\leftarrow \joinrel \rhook $}}{}{}O\discretionary {\unhbox \voidb@x \hbox {\relax \fontsize {7}{8}\selectfont $\leftarrow \joinrel \rhook $}}{}{}R\discretionary {\unhbox \voidb@x \hbox {\relax \fontsize {7}{8}\selectfont $\leftarrow \joinrel \rhook $}}{}{}P\discretionary {\unhbox \voidb@x \hbox {\relax \fontsize {7}{8}\selectfont $\leftarrow \joinrel \rhook $}}{}{}O\discretionary {\unhbox \voidb@x \hbox {\relax \fontsize {7}{8}\selectfont $\leftarrow \joinrel \rhook $}}{}{}S\discretionary {\unhbox \voidb@x \hbox {\relax \fontsize {7}{8}\selectfont $\leftarrow \joinrel \rhook $}}{}{}\_\discretionary {\unhbox \voidb@x \hbox {\relax \fontsize {7}{8}\selectfont $\leftarrow \joinrel \rhook $}}{}{}\discretionary {\unhbox \voidb@x \hbox {\relax \fontsize {7}{8}\selectfont $\leftarrow \joinrel \rhook $}}{}{}L\discretionary {\unhbox \voidb@x \hbox {\relax \fontsize {7}{8}\selectfont $\leftarrow \joinrel \rhook $}}{}{}I\discretionary {\unhbox \voidb@x \hbox {\relax \fontsize {7}{8}\selectfont $\leftarrow \joinrel \rhook $}}{}{}B\discretionary {\unhbox \voidb@x \hbox {\relax \fontsize {7}{8}\selectfont $\leftarrow \joinrel \rhook $}}{}{}R\discretionary {\unhbox \voidb@x \hbox {\relax \fontsize {7}{8}\selectfont $\leftarrow \joinrel \rhook $}}{}{}A\discretionary {\unhbox \voidb@x \hbox {\relax \fontsize {7}{8}\selectfont $\leftarrow \joinrel \rhook $}}{}{}R\discretionary {\unhbox \voidb@x \hbox {\relax \fontsize {7}{8}\selectfont $\leftarrow \joinrel \rhook $}}{}{}Y}{7}{section.4.1}
\contentsline {subsection}{\numberline {4.1.1}Detailed Description}{7}{subsection.4.1.1}
\contentsline {section}{\numberline {4.2}vector}{8}{section.4.2}
\contentsline {subsection}{\numberline {4.2.1}Detailed Description}{9}{subsection.4.2.1}
\contentsline {subsection}{\numberline {4.2.2}Function Documentation}{9}{subsection.4.2.2}
\contentsline {subsubsection}{\numberline {4.2.2.1}Vector\discretionary {\unhbox \voidb@x \hbox {\relax \fontsize {7}{8}\selectfont $\leftarrow \joinrel \rhook $}}{}{}\_\discretionary {\unhbox \voidb@x \hbox {\relax \fontsize {7}{8}\selectfont $\leftarrow \joinrel \rhook $}}{}{}\discretionary {\unhbox \voidb@x \hbox {\relax \fontsize {7}{8}\selectfont $\leftarrow \joinrel \rhook $}}{}{}Add}{9}{subsubsection.4.2.2.1}
\contentsline {subsubsection}{\numberline {4.2.2.2}Vector\discretionary {\unhbox \voidb@x \hbox {\relax \fontsize {7}{8}\selectfont $\leftarrow \joinrel \rhook $}}{}{}\_\discretionary {\unhbox \voidb@x \hbox {\relax \fontsize {7}{8}\selectfont $\leftarrow \joinrel \rhook $}}{}{}\discretionary {\unhbox \voidb@x \hbox {\relax \fontsize {7}{8}\selectfont $\leftarrow \joinrel \rhook $}}{}{}Back}{9}{subsubsection.4.2.2.2}
\contentsline {subsubsection}{\numberline {4.2.2.3}Vector\discretionary {\unhbox \voidb@x \hbox {\relax \fontsize {7}{8}\selectfont $\leftarrow \joinrel \rhook $}}{}{}\_\discretionary {\unhbox \voidb@x \hbox {\relax \fontsize {7}{8}\selectfont $\leftarrow \joinrel \rhook $}}{}{}\discretionary {\unhbox \voidb@x \hbox {\relax \fontsize {7}{8}\selectfont $\leftarrow \joinrel \rhook $}}{}{}Delete}{10}{subsubsection.4.2.2.3}
\contentsline {subsubsection}{\numberline {4.2.2.4}Vector\discretionary {\unhbox \voidb@x \hbox {\relax \fontsize {7}{8}\selectfont $\leftarrow \joinrel \rhook $}}{}{}\_\discretionary {\unhbox \voidb@x \hbox {\relax \fontsize {7}{8}\selectfont $\leftarrow \joinrel \rhook $}}{}{}\discretionary {\unhbox \voidb@x \hbox {\relax \fontsize {7}{8}\selectfont $\leftarrow \joinrel \rhook $}}{}{}End}{10}{subsubsection.4.2.2.4}
\contentsline {subsubsection}{\numberline {4.2.2.5}Vector\discretionary {\unhbox \voidb@x \hbox {\relax \fontsize {7}{8}\selectfont $\leftarrow \joinrel \rhook $}}{}{}\_\discretionary {\unhbox \voidb@x \hbox {\relax \fontsize {7}{8}\selectfont $\leftarrow \joinrel \rhook $}}{}{}\discretionary {\unhbox \voidb@x \hbox {\relax \fontsize {7}{8}\selectfont $\leftarrow \joinrel \rhook $}}{}{}Free}{10}{subsubsection.4.2.2.5}
\contentsline {subsubsection}{\numberline {4.2.2.6}Vector\discretionary {\unhbox \voidb@x \hbox {\relax \fontsize {7}{8}\selectfont $\leftarrow \joinrel \rhook $}}{}{}\_\discretionary {\unhbox \voidb@x \hbox {\relax \fontsize {7}{8}\selectfont $\leftarrow \joinrel \rhook $}}{}{}\discretionary {\unhbox \voidb@x \hbox {\relax \fontsize {7}{8}\selectfont $\leftarrow \joinrel \rhook $}}{}{}Get}{11}{subsubsection.4.2.2.6}
\contentsline {subsubsection}{\numberline {4.2.2.7}Vector\discretionary {\unhbox \voidb@x \hbox {\relax \fontsize {7}{8}\selectfont $\leftarrow \joinrel \rhook $}}{}{}\_\discretionary {\unhbox \voidb@x \hbox {\relax \fontsize {7}{8}\selectfont $\leftarrow \joinrel \rhook $}}{}{}\discretionary {\unhbox \voidb@x \hbox {\relax \fontsize {7}{8}\selectfont $\leftarrow \joinrel \rhook $}}{}{}Init}{11}{subsubsection.4.2.2.7}
\contentsline {subsubsection}{\numberline {4.2.2.8}Vector\discretionary {\unhbox \voidb@x \hbox {\relax \fontsize {7}{8}\selectfont $\leftarrow \joinrel \rhook $}}{}{}\_\discretionary {\unhbox \voidb@x \hbox {\relax \fontsize {7}{8}\selectfont $\leftarrow \joinrel \rhook $}}{}{}\discretionary {\unhbox \voidb@x \hbox {\relax \fontsize {7}{8}\selectfont $\leftarrow \joinrel \rhook $}}{}{}Set}{11}{subsubsection.4.2.2.8}
\contentsline {subsubsection}{\numberline {4.2.2.9}Vector\discretionary {\unhbox \voidb@x \hbox {\relax \fontsize {7}{8}\selectfont $\leftarrow \joinrel \rhook $}}{}{}\_\discretionary {\unhbox \voidb@x \hbox {\relax \fontsize {7}{8}\selectfont $\leftarrow \joinrel \rhook $}}{}{}\discretionary {\unhbox \voidb@x \hbox {\relax \fontsize {7}{8}\selectfont $\leftarrow \joinrel \rhook $}}{}{}Swap}{12}{subsubsection.4.2.2.9}
\contentsline {chapter}{\numberline {5}Data Structure Documentation}{13}{chapter.5}
\contentsline {section}{\numberline {5.1}vector Struct Reference}{13}{section.5.1}
\contentsline {subsection}{\numberline {5.1.1}Detailed Description}{13}{subsection.5.1.1}
\contentsline {subsection}{\numberline {5.1.2}Field Documentation}{13}{subsection.5.1.2}
\contentsline {subsubsection}{\numberline {5.1.2.1}capacity}{13}{subsubsection.5.1.2.1}
\contentsline {subsubsection}{\numberline {5.1.2.2}items}{13}{subsubsection.5.1.2.2}
\contentsline {subsubsection}{\numberline {5.1.2.3}total}{13}{subsubsection.5.1.2.3}
\contentsline {chapter}{\numberline {6}File Documentation}{15}{chapter.6}
\contentsline {section}{\numberline {6.1}vector.\discretionary {\unhbox \voidb@x \hbox {\relax \fontsize {7}{8}\selectfont $\leftarrow \joinrel \rhook $}}{}{}h File Reference}{15}{section.6.1}
\contentsline {subsection}{\numberline {6.1.1}Detailed Description}{16}{subsection.6.1.1}
\contentsline {chapter}{Index}{18}{section*.14}
