\relax 
\providecommand\hyper@newdestlabel[2]{}
\providecommand\HyperFirstAtBeginDocument{\AtBeginDocument}
\HyperFirstAtBeginDocument{\ifx\hyper@anchor\@undefined
\global\let\oldcontentsline\contentsline
\gdef\contentsline#1#2#3#4{\oldcontentsline{#1}{#2}{#3}}
\global\let\oldnewlabel\newlabel
\gdef\newlabel#1#2{\newlabelxx{#1}#2}
\gdef\newlabelxx#1#2#3#4#5#6{\oldnewlabel{#1}{{#2}{#3}}}
\AtEndDocument{\ifx\hyper@anchor\@undefined
\let\contentsline\oldcontentsline
\let\newlabel\oldnewlabel
\fi}
\fi}
\global\let\hyper@last\relax 
\gdef\HyperFirstAtBeginDocument#1{#1}
\providecommand\HyField@AuxAddToFields[1]{}
\providecommand\HyField@AuxAddToCoFields[2]{}
\@writefile{toc}{\contentsline {chapter}{\numberline {1}Module Index}{1}{chapter.1}}
\@writefile{lof}{\addvspace {10\p@ }}
\@writefile{lot}{\addvspace {10\p@ }}
\@writefile{toc}{\contentsline {section}{\numberline {1.1}Modules}{1}{section.1.1}}
\@writefile{toc}{\contentsline {chapter}{\numberline {2}Data Structure Index}{3}{chapter.2}}
\@writefile{lof}{\addvspace {10\p@ }}
\@writefile{lot}{\addvspace {10\p@ }}
\@writefile{toc}{\contentsline {section}{\numberline {2.1}Data Structures}{3}{section.2.1}}
\@writefile{toc}{\contentsline {chapter}{\numberline {3}File Index}{5}{chapter.3}}
\@writefile{lof}{\addvspace {10\p@ }}
\@writefile{lot}{\addvspace {10\p@ }}
\@writefile{toc}{\contentsline {section}{\numberline {3.1}File List}{5}{section.3.1}}
\@writefile{toc}{\contentsline {chapter}{\numberline {4}Module Documentation}{7}{chapter.4}}
\@writefile{lof}{\addvspace {10\p@ }}
\@writefile{lot}{\addvspace {10\p@ }}
\@writefile{toc}{\contentsline {section}{\numberline {4.1}S\discretionary {\unhbox \voidb@x \hbox {\relax \fontsize  {7}{8}\selectfont  $\leftarrow \joinrel  \rhook $}}{}{}C\discretionary {\unhbox \voidb@x \hbox {\relax \fontsize  {7}{8}\selectfont  $\leftarrow \joinrel  \rhook $}}{}{}O\discretionary {\unhbox \voidb@x \hbox {\relax \fontsize  {7}{8}\selectfont  $\leftarrow \joinrel  \rhook $}}{}{}R\discretionary {\unhbox \voidb@x \hbox {\relax \fontsize  {7}{8}\selectfont  $\leftarrow \joinrel  \rhook $}}{}{}P\discretionary {\unhbox \voidb@x \hbox {\relax \fontsize  {7}{8}\selectfont  $\leftarrow \joinrel  \rhook $}}{}{}O\discretionary {\unhbox \voidb@x \hbox {\relax \fontsize  {7}{8}\selectfont  $\leftarrow \joinrel  \rhook $}}{}{}S\discretionary {\unhbox \voidb@x \hbox {\relax \fontsize  {7}{8}\selectfont  $\leftarrow \joinrel  \rhook $}}{}{}\_\discretionary {\unhbox \voidb@x \hbox {\relax \fontsize  {7}{8}\selectfont  $\leftarrow \joinrel  \rhook $}}{}{}\discretionary {\unhbox \voidb@x \hbox {\relax \fontsize  {7}{8}\selectfont  $\leftarrow \joinrel  \rhook $}}{}{}L\discretionary {\unhbox \voidb@x \hbox {\relax \fontsize  {7}{8}\selectfont  $\leftarrow \joinrel  \rhook $}}{}{}I\discretionary {\unhbox \voidb@x \hbox {\relax \fontsize  {7}{8}\selectfont  $\leftarrow \joinrel  \rhook $}}{}{}B\discretionary {\unhbox \voidb@x \hbox {\relax \fontsize  {7}{8}\selectfont  $\leftarrow \joinrel  \rhook $}}{}{}R\discretionary {\unhbox \voidb@x \hbox {\relax \fontsize  {7}{8}\selectfont  $\leftarrow \joinrel  \rhook $}}{}{}A\discretionary {\unhbox \voidb@x \hbox {\relax \fontsize  {7}{8}\selectfont  $\leftarrow \joinrel  \rhook $}}{}{}R\discretionary {\unhbox \voidb@x \hbox {\relax \fontsize  {7}{8}\selectfont  $\leftarrow \joinrel  \rhook $}}{}{}Y}{7}{section.4.1}}
\newlabel{group__SCORPOS__LIBRARY}{{4.1}{7}{S\+C\+O\+R\+P\+O\+S\+\_\+\+L\+I\+B\+R\+A\+R\+Y}{section.4.1}{}}
\@writefile{toc}{\contentsline {subsection}{\numberline {4.1.1}Detailed Description}{7}{subsection.4.1.1}}
\@input{group__VECTOR.aux}
\@writefile{toc}{\contentsline {chapter}{\numberline {5}Data Structure Documentation}{13}{chapter.5}}
\@writefile{lof}{\addvspace {10\p@ }}
\@writefile{lot}{\addvspace {10\p@ }}
\@writefile{toc}{\contentsline {section}{\numberline {5.1}vector Struct Reference}{13}{section.5.1}}
\newlabel{structvector}{{5.1}{13}{vector Struct Reference}{section.5.1}{}}
\@writefile{toc}{\contentsline {subsection}{\numberline {5.1.1}Detailed Description}{13}{subsection.5.1.1}}
\@writefile{toc}{\contentsline {subsection}{\numberline {5.1.2}Field Documentation}{13}{subsection.5.1.2}}
\@writefile{toc}{\contentsline {subsubsection}{\numberline {5.1.2.1}capacity}{13}{subsubsection.5.1.2.1}}
\newlabel{structvector_af421a682e1e7a1b2398f48e66826c711}{{5.1.2.1}{13}{capacity}{subsubsection.5.1.2.1}{}}
\@writefile{toc}{\contentsline {subsubsection}{\numberline {5.1.2.2}items}{13}{subsubsection.5.1.2.2}}
\newlabel{structvector_ac46224672919efb4763a7bc6581b706a}{{5.1.2.2}{13}{items}{subsubsection.5.1.2.2}{}}
\@writefile{toc}{\contentsline {subsubsection}{\numberline {5.1.2.3}total}{13}{subsubsection.5.1.2.3}}
\newlabel{structvector_a01148b2326975cd07cc02486424958a6}{{5.1.2.3}{13}{total}{subsubsection.5.1.2.3}{}}
\@writefile{toc}{\contentsline {chapter}{\numberline {6}File Documentation}{15}{chapter.6}}
\@writefile{lof}{\addvspace {10\p@ }}
\@writefile{lot}{\addvspace {10\p@ }}
\@writefile{toc}{\contentsline {section}{\numberline {6.1}vector.\discretionary {\unhbox \voidb@x \hbox {\relax \fontsize  {7}{8}\selectfont  $\leftarrow \joinrel  \rhook $}}{}{}h File Reference}{15}{section.6.1}}
\newlabel{vector_8h}{{6.1}{15}{vector.\+h File Reference}{section.6.1}{}}
\newlabel{group__VECTOR_ga076407c35f41c3eb216fbb2ffec41873}{{6.1}{15}{Macros}{section*.10}{}}
\newlabel{group__VECTOR_gaffd2227377ea695768ca82e8ea02f48e}{{6.1}{15}{Typedefs}{section*.11}{}}
\newlabel{group__VECTOR_gabc76a49826ba5787770694a3183f26c0}{{6.1}{15}{Typedefs}{section*.11}{}}
\newlabel{group__VECTOR_ga604ea30e5e116f443a85a821a53402c7}{{6.1}{15}{Typedefs}{section*.11}{}}
\newlabel{group__VECTOR_gacc1ad0455b67577ddba100839974955e}{{6.1}{15}{Enumerations}{section*.12}{}}
\@writefile{toc}{\contentsline {subsection}{\numberline {6.1.1}Detailed Description}{16}{subsection.6.1.1}}
\@writefile{toc}{\contentsline {chapter}{Index}{18}{section*.14}}
